{
    "terrain": "ruins",
    "indoor": true,
    "ambientLight": {
        "g":   0,
        "b":   0,
        "r":   0,
        "a": 255
    },
    "instanceSpawner":"net.lugdunon.server.worldgen.procedural.instance.spawner.ProceduralInstanceSpawner",
    "trackListing":{"interval":{"min":300000,"max":600000},"tracks":["MUSIC.BACKGROUND.NOISE"]},
    
	"dimension"              :128,
	"returnPortal"           :"PORTAL.LADDER.WOOD",
	"placementStrategy":
	{
		"class":"net.lugdunon.server.worldgen.procedural.item.placement.metazelda.MetazeldaDungeonPlacementStrategy",
		"args":
		{
		}
	},
	"biomes":
	[
		{
			"id"         : 0,
			"name"	   :"Nullspace",
			"color"      :"000000",
			"description":"",
			"impl"	   :{
				"class":"net.lugdunon.world.biome.Biome",
				"args" :
				{
				}
			},
			"layers"             :[],
			"fixedElevation"     :1,
			"ambientAudio"       :[]
		},
		{
			"id"         :1,
			"name"       :"Ruin",
			"color"      :"C0C0C0",
			"description":"",
			"impl"       :
			{
				"class":"net.lugdunon.server.worldgen.procedural.biome.MetazeldaDungeonBiome",
				"args" :{}
			},
			"layers"             :[3],
			"allowElevationSteps":false,
			"fixedElevation"     :0,
			"updateable"         :true,
			"ambientAudio"       :[]
		}
	],
    "proceduralConfiguration":
    {
		"smoothing"         :0,
		"elevationsToBiomes":
		[
			{"biomes":[0],"elevations":[0]},
			{"biomes":[1],"elevations":[1]}
		],
		"spawnPoint"    :
		{
		    "class":"net.lugdunon.server.worldgen.procedural.instance.spawner.spawn.MetazeldaDungeonSpawnPointGenerator",
		    "args":{}
		},
		"noise":
		{
			"class":"net.lugdunon.server.worldgen.procedural.noise.metazelda.MetazeldaDungeon",
			"args":
			{
				"roomWidth"    : 16,
				"roomHeight"   : 16,
				"wallThickness":  2,
				"doorWidth"    :  4,
				"generator"    :
				{
					"class":"net.lugdunon.server.worldgen.procedural.noise.metazelda.generator.BaseDungeonGeneratorWrapper",
					"args" :
					{
						"maxKeys"    :0,
						"maxSwitches":0
					}
				},
				"roomGenerator"    :
				{
					"class":"net.lugdunon.server.worldgen.procedural.noise.metazelda.generator.room.EasedCornersRoomGenerator",
					"args" :
					{
						"boss"             :"BOSS.DUNGEON.HIGHLAND.RUINS",
						"goal"             :"DUNGEON.REWARD.CHEST.HIGHLANDS",
						"intermediaryRooms":
						[
							{
								"class":"net.lugdunon.server.worldgen.procedural.room.BaseIntermediaryRoom",
								"args" :
								{
									"intensityThreshold":1.0,
									"contents":
									{
										"constants":
										[
											{
												"id"   :"LIGHT.WALL.SCONCE",
												"state":"violethide",
												"location":
												{
													"top" :8,
													"left":5
												}
											},
											{
												"id"   :"LIGHT.WALL.SCONCE",
												"state":"violethide",
												"location":
												{
													"top" :8,
													"right":6
												}
											},
											{
												"id"   :"LIGHT.WALL.SCONCE",
												"state":"violethide",
												"location":
												{
													"bottom":3,
													"left"  :5
												}
											},
											{
												"id"   :"LIGHT.WALL.SCONCE",
												"state":"violethide",
												"location":
												{
													"bottom":3,
													"right" :6
												}
											}
										]
									}
								}
							},
							{
								"class":"net.lugdunon.server.worldgen.procedural.room.BaseIntermediaryRoom",
								"args" :
								{
									"intensityThreshold":0.99,
									"npcs":
									[
										{
											"probability":1.0,
											"npcs":
											[
												"HUMAN.SKELETON|2-3",
											]
										}
									],
									"contents":
									{
										"constants":
										[
											{
												"id"   :"LIGHT.WALL.SCONCE",
												"state":"violethide",
												"location":
												{
													"top" :8,
													"left":5
												}
											},
											{
												"id"   :"LIGHT.WALL.SCONCE",
												"state":"violethide",
												"location":
												{
													"top" :8,
													"right":6
												}
											},
											{
												"id"   :"LIGHT.WALL.SCONCE",
												"state":"violethide",
												"location":
												{
													"bottom":3,
													"left"  :5
												}
											},
											{
												"id"   :"LIGHT.WALL.SCONCE",
												"state":"violethide",
												"location":
												{
													"bottom":3,
													"right" :6
												}
											}
										],
										"variables":
										[
											{
												"probability":1.0,
												"items":[
													{
														"id"   :"ARCANE.RELIQUARY.BULL",
														"location":
														{
															"hcenter":0,
															"vcenter":0
														}
													}
												]
											}
										]
									}
								}
							},
							{
								"class":"net.lugdunon.server.worldgen.procedural.room.BaseIntermediaryRoom",
								"args" :
								{
									"intensityThreshold":0.60,
									"npcs":
									[
										{
											"probability":1.0,
											"npcs":
											[
												"HUMAN.SKELETON|1-2",
											]
										}
									],
									"contents":
									{
										"constants":
										[
											{
												"id"   :"LIGHT.WALL.SCONCE",
												"state":"redhide",
												"location":
												{
													"top" :8,
													"left":5
												}
											},
											{
												"id"   :"LIGHT.WALL.SCONCE",
												"state":"redhide",
												"location":
												{
													"top" :8,
													"right":6
												}
											},
											{
												"id"   :"LIGHT.WALL.SCONCE",
												"state":"redhide",
												"location":
												{
													"bottom":3,
													"left"  :5
												}
											},
											{
												"id"   :"LIGHT.WALL.SCONCE",
												"state":"redhide",
												"location":
												{
													"bottom":3,
													"right" :6
												}
											}
										],
										"variables":
										[
											{
												"probability":1.0,
												"items":[
													{
														"id"   :"ARCANE.RELIQUARY.LIGHT",
														"location":
														{
															"top" :8,
															"left":4
														}
													},
													{
														"id"   :"ARCANE.RELIQUARY.LIGHT",
														"location":
														{
															"top" :8,
															"right":5
														}
													}
												]
											}
										]
									}
								}
							},
							{
								"class":"net.lugdunon.server.worldgen.procedural.room.BaseIntermediaryRoom",
								"args" :
								{
									"intensityThreshold":0.30,
									"npcs":
									[
										{
											"probability":1.0,
											"npcs":
											[
												"HUMAN.MALE.GHOSTLY.SCHOLAR|2-3",
											]
										}
									],
									"contents":
									{
										"constants":
										[
											{
												"id"   :"LIGHT.WALL.SCONCE",
												"state":"orangehide",
												"location":
												{
													"top" :8,
													"left":5
												}
											},
											{
												"id"   :"LIGHT.WALL.SCONCE",
												"state":"orangehide",
												"location":
												{
													"top" :8,
													"right":6
												}
											},
											{
												"id"   :"LIGHT.WALL.SCONCE",
												"state":"orangehide",
												"location":
												{
													"bottom":3,
													"left"  :5
												}
											},
											{
												"id"   :"LIGHT.WALL.SCONCE",
												"state":"orangehide",
												"location":
												{
													"bottom":3,
													"right" :6
												}
											}
										],
										"variables":
										[
											{
												"probability":1.0,
												"items":[
													{
														"id"   :"ARCANE.REPOSITORY",
														"location":
														{
															"top":5,
															"left":4
														}
													
													},
													{
														"id"   :"ARCANE.REPOSITORY",
														"location":
														{
															"top":5,
															"right" :5
														}
													
													},
													{
														"id"   :"ARCANE.REPOSITORY",
														"location":
														{
															"bottom":4,
															"left"  :4
														}
													
													},
													{
														"id"   :"ARCANE.REPOSITORY",
														"location":
														{
															"bottom":4,
															"right" :5
														}
													}
												]
											}
										]
									}
								}
							},
							{
								"class":"net.lugdunon.server.worldgen.procedural.room.BaseIntermediaryRoom",
								"args" :
								{
									"intensityThreshold":0.10,
									"npcs":
									[
										{
											"probability":1.0,
											"npcs":
											[
												"HUMAN.MALE.GHOSTLY.SCHOLAR|1-2",
											]
										}
									],
									"contents":
									{
										"constants":
										[
											{
												"id"   :"LIGHT.WALL.SCONCE",
												"state":"yellowhide",
												"location":
												{
													"top" :8,
													"left":6
												}
											},
											{
												"id"   :"LIGHT.WALL.SCONCE",
												"state":"yellowhide",
												"location":
												{
													"top" :8,
													"right":6
												}
											},
											{
												"id"   :"LIGHT.WALL.SCONCE",
												"state":"yellowhide",
												"location":
												{
													"bottom":3,
													"left"  :5
												}
											},
											{
												"id"   :"LIGHT.WALL.SCONCE",
												"state":"yellowhide",
												"location":
												{
													"bottom":3,
													"right" :6
												}
											}
										],
										"variables":
										[
											{
												"probability":1.0,
												"items":[
													{
														"id"   :"ARCANE.REPOSITORY",
														"location":
														{
															"top" :8,
															"left":4
														}
													},
													{
														"id"   :"ARCANE.REPOSITORY",
														"location":
														{
															"top" :8,
															"right":5
														}
													}
												]
											}
										]
									}
								}
							},
							{
								"class":"net.lugdunon.server.worldgen.procedural.room.BaseIntermediaryRoom",
								"args" :
								{
									"intensityThreshold":0.01,
									"npcs":
									[
										{
											"probability":1.0,
											"npcs":
											[
												"RAT.BASEMENT|2-5",
											]
										}
									],
									"contents":
									{
										"constants":
										[
											{
												"id"   :"LIGHT.WALL.SCONCE",
												"state":"greenhide",
												"location":
												{
													"top" :8,
													"left":5
												}
											},
											{
												"id"   :"LIGHT.WALL.SCONCE",
												"state":"greenhide",
												"location":
												{
													"top" :8,
													"right":6
												}
											},
											{
												"id"   :"LIGHT.WALL.SCONCE",
												"state":"greenhide",
												"location":
												{
													"bottom":3,
													"left"  :5
												}
											},
											{
												"id"   :"LIGHT.WALL.SCONCE",
												"state":"greenhide",
												"location":
												{
													"bottom":3,
													"right" :6
												}
											}
										]
									}
								}
							},
							{
								"class":"net.lugdunon.server.worldgen.procedural.room.BaseIntermediaryRoom",
								"args" :
								{
									"intensityThreshold":0.0,
									"npcs":
									[],
									"contents":
									{
										"constants":
										[
											{
												"id"   :"LIGHT.WALL.SCONCE",
												"state":"bluehide",
												"location":
												{
													"top" :8,
													"left":5
												}
											},
											{
												"id"   :"LIGHT.WALL.SCONCE",
												"state":"bluehide",
												"location":
												{
													"top" :8,
													"right":6
												}
											},
											{
												"id"   :"LIGHT.WALL.SCONCE",
												"state":"bluehide",
												"location":
												{
													"bottom":3,
													"left"  :5
												}
											},
											{
												"id"   :"LIGHT.WALL.SCONCE",
												"state":"bluehide",
												"location":
												{
													"bottom":3,
													"right" :6
												}
											}
										]
									}
								}
							}
						]
					}
				}
			}
		}
	}
}