{
    "progress": [
        "net.lugdunon.state.quest.progress.ItemPlaced",
        "net.lugdunon.state.quest.progress.ItemAltered",
        "net.lugdunon.state.quest.progress.ItemCrafted",
        "net.lugdunon.state.quest.progress.ItemCollection",
        "net.lugdunon.state.quest.progress.ItemDamaged",
        "net.lugdunon.state.quest.progress.ItemEquipped",
        "net.lugdunon.state.quest.progress.ItemUnequipped",
        "net.lugdunon.state.quest.progress.ItemUsed",
        "net.lugdunon.state.quest.progress.AnimalNamed",
        "net.lugdunon.state.quest.progress.AnimalTrapped",
        "net.lugdunon.state.quest.progress.AnimalReleased",
        "net.lugdunon.state.quest.progress.NPCHurtOrHealed",
        "net.lugdunon.state.quest.progress.NPCKilled",
        "net.lugdunon.state.quest.progress.NPCProximity",
        "net.lugdunon.state.quest.progress.SettlementVisited",
        "net.lugdunon.state.quest.progress.ModifierGainOrLose",
        "net.lugdunon.state.quest.progress.ModifierApplyOrDispel"
    ],
    "conditions": {
        "abandon": [
            "net.lugdunon.state.quest.condition.abandon.ItemDebit",
            "net.lugdunon.state.quest.condition.abandon.PlaceableRemoval"
        ],
        "completion": [
            "net.lugdunon.state.quest.condition.completion.ClientSideNotification",
            "net.lugdunon.state.quest.condition.completion.ItemDebit",
            "net.lugdunon.state.quest.condition.completion.PlaceableRemoval",
            "net.lugdunon.state.quest.condition.completion.SendMail",
            "net.lugdunon.state.quest.condition.completion.reward.AdvancementReward",
            "net.lugdunon.state.quest.condition.completion.reward.CurrencyReward",
            "net.lugdunon.state.quest.condition.completion.reward.ExperienceReward",
            "net.lugdunon.state.quest.condition.completion.reward.FactionReward",
            "net.lugdunon.state.quest.condition.completion.reward.ItemReward",
            "net.lugdunon.state.quest.condition.completion.reward.HonorificReward",
            "net.lugdunon.state.quest.condition.completion.reward.TitleReward"
        ]
    },
    "triggers": ["net.lugdunon.state.quest.trigger.NPCTrigger"],
    "resolvers": ["net.lugdunon.state.quest.resolver.NPCResolver"],
    "quests": [],
    "procedural": {
    	"collect.existing.resource.template":
    	{
    		"iClass":"net.lugdunon.state.quest.procedural.CollectExistingResource",
    		"props" :
    		{
				"name"          :"{itemName} is in short supply!",
				"detail"        :"I need {itemCount} of {itemName} or I am out of business! Think you can handle getting it for me?",
				"summary"       :"Collect {itemCount} of {itemName} and deliver it to {resolverName}.",
				"acceptance"    :"I really need all {itemCount} of those {itemName} as soon as possible.",
				"success"       :"Excellent! Thank you! Now I can continue."
    		}
    	},
    	"damage.existing.placeable.template":
    	{
    		"iClass":"net.lugdunon.state.quest.procedural.DamageExistingPlaceable",
    		"props" :
    		{
				"name"          :"{itemName} needs damaging!",
				"detail"        :"I need {itemCount} of {itemName} damaged. I hate 'em! Think you can handle getting it for me?",
				"summary"       :"Damage {itemCount} of {itemName} and return to {resolverName}.",
				"acceptance"    :"I really need all {itemCount} of those {itemName} damaged as soon as possible.",
				"success"       :"Excellent! Thank you! Now I can sleep at night."
    		}
    	},
    	"kill.existing.npc.template":
    	{
    		"iClass":"net.lugdunon.state.quest.procedural.KillExistingNPC",
    		"props" :
    		{
				"name"          :"{npcName} is in need of killing!",
				"detail"        :"I need you to kill {npcCount} of {npcName}! They're running roughshod over us!",
				"summary"       :"Kill {npcCount} of {npcName} and report to {resolverName}.",
				"acceptance"    :"I really need you to kill {npcCount} of those {npcName} as soon as possible.",
				"success"       :"Excellent! Thank you! Now we can breathe a little easier."
    		}
    	},
    	"npc.proximity.template":
    	{
    		"iClass":"net.lugdunon.state.quest.procedural.ExistingNPCProximity",
    		"props" :
    		{
				"name"          :"{npcName} needs you!",
				"detail"        :"I need you to find {npcName} for me! The fate of the world depends on it!",
				"summary"       :"Find {npcName} and return to {resolverName}.",
				"acceptance"    :"I really need you to find {npcName} as soon as possible.",
				"success"       :"Excellent! Thank you! The world lives another day."
    		}
    	},
    	"craft.existing.item.template":
    	{
    		"iClass":"net.lugdunon.state.quest.procedural.CraftExistingItem",
    		"props" :
    		{
	            "name": "Make me '{recipe}'",
	            "detail": "Hey there! I need you to make '{recipe}'",
	            "summary": "Make {triggerName} something using '{recipe}'",
	            "acceptance": "I really need you to make '{recipe}'",
	            "success": "Yay! You are useful!"
	        }
	    }
    }
}