[
	{
		"id"                :"",
		"name"              :"",
		"description"       :"",
		"spawn"             :{"x":0,"y":0},
		"characterInventory":[
			[
				null,
				"ARMOR.FARMER.CLOTH.CHEST",
				null,
				"ARMOR.FARMER.CLOTH.LEGS",
				null,
				"ARMOR.FARMER.CLOTH.FEET"
			],
			[],
			[
				"ACTION.PLAY.HAND",
				null,
				null,
				null,
				null,
				null,
				null,
				null,
				null,
				"ITEM.LIGHT.CANDLE|10"
			],
			[
				"ACTION.EDIT.PAN",
				null,
				"ACTION.EDIT.TERRAIN.LAYER.00",
				"ACTION.EDIT.TERRAIN.LAYER.01",
				"ACTION.EDIT.TERRAIN.LAYER.02",
				"ACTION.EDIT.TERRAIN.LAYER.03",
				"ACTION.EDIT.TERRAIN.LAYER.04",
				"ACTION.EDIT.TERRAIN.LAYER.05",
				"ACTION.EDIT.TERRAIN.LAYER.06"
			]
		]
	}
]