[
	"net/lugdunon/server/worldgen/procedural/ProceduralWorldGen.js",
	"net/lugdunon/server/worldgen/procedural/ProceduralWorldGen.json",
	"net/lugdunon/server/worldgen/procedural/ProceduralWorldGen.html",
	"net/lugdunon/server/worldgen/procedural/ProceduralWorldGenExpert.html",
	"net/lugdunon/server/worldgen/procedural/noise/INoiseGen.js",
	"net/lugdunon/server/worldgen/procedural/noise/DiamondSquare.js",
	"net/lugdunon/server/worldgen/procedural/post/IPostProcessor.js",
	"net/lugdunon/server/worldgen/procedural/post/ErosionPostProcessor.js"
]